<?xml version="1.0" encoding="UTF-8" standalone="no"?>
<svg
        xmlns:dc="http://purl.org/dc/elements/1.1/"
        xmlns:cc="http://creativecommons.org/ns#"
        xmlns:rdf="http://www.w3.org/1999/02/22-rdf-syntax-ns#"
        xmlns="http://www.w3.org/2000/svg"
        xmlns:xlink="http://www.w3.org/1999/xlink"
        xmlns:sodipodi="http://sodipodi.sourceforge.net/DTD/sodipodi-0.dtd"
        xmlns:inkscape="http://www.inkscape.org/namespaces/inkscape"
        viewBox="0 0 19.949212 22.227706"
        version="1.1"
        id="svg4"
        sodipodi:docname="icn_unlock_hover.svg"
        width="19.949211"
        height="22.227707"
        inkscape:version="1.0 (4035a4fb49, 2020-05-01)">
    <metadata
            id="metadata10">
        <rdf:RDF>
            <cc:Work
                    rdf:about="">
                <dc:format>image/svg+xml</dc:format>
                <dc:type
                        rdf:resource="http://purl.org/dc/dcmitype/StillImage"/>
                <dc:title></dc:title>
            </cc:Work>
        </rdf:RDF>
    </metadata>
    <defs
            id="defs8">
        <linearGradient
                inkscape:collect="always"
                id="linearGradient865">
            <stop
                    style="stop-color:#ffa100;stop-opacity:1"
                    offset="0"
                    id="stop861"/>
            <stop
                    style="stop-color:#ff7413;stop-opacity:1"
                    offset="1"
                    id="stop863"/>
        </linearGradient>
        <linearGradient
                gradientTransform="matrix(0.03560092,0,0,0.03560092,0.575963,0.5759617)"
                inkscape:collect="always"
                xlink:href="#linearGradient865"
                id="linearGradient867"
                x1="262.28693"
                y1="42.837425"
                x2="262.20245"
                y2="551.61554"
                gradientUnits="userSpaceOnUse"/>
    </defs>
    <sodipodi:namedview
            viewbox-width="528"
            inkscape:document-rotation="0"
            pagecolor="#ffffff"
            bordercolor="#666666"
            borderopacity="1"
            objecttolerance="10"
            gridtolerance="10"
            guidetolerance="10"
            inkscape:pageopacity="0"
            inkscape:pageshadow="2"
            inkscape:window-width="1342"
            inkscape:window-height="1043"
            id="namedview6"
            showgrid="false"
            fit-margin-left="2"
            fit-margin-top="2"
            fit-margin-right="2"
            fit-margin-bottom="2"
            inkscape:zoom="3.9375"
            inkscape:cx="82.662895"
            inkscape:cy="10.571944"
            inkscape:window-x="56"
            inkscape:window-y="32"
            inkscape:window-maximized="0"
            inkscape:current-layer="svg4"/>
    <path
            d="M 16.240367,11.113871 H 7.41134 V 7.4434152 c 0,-1.4097963 1.128549,-2.5810665 2.538346,-2.5953068 1.424036,-0.014255 2.588186,1.1427894 2.588186,2.5632661 v 0.5696148 c 0,0.4734928 0.38093,0.8544226 0.854422,0.8544226 h 1.139229 c 0.473493,0 0.854423,-0.3809298 0.854423,-0.8544226 V 7.4113745 c 0,-2.9904771 -2.438663,-5.4220198 -5.42914,-5.4113395 -2.990477,0.010673 -5.39354,2.4742637 -5.39354,5.4647408 V 11.113871 H 3.708845 C 2.76542,11.113871 2,11.87929 2,12.822715 v 5.696147 c 0,0.943424 0.76542,1.708844 1.708845,1.708844 h 12.531522 c 0.943425,0 1.708845,-0.76542 1.708845,-1.708844 v -5.696147 c 0,-0.943425 -0.765421,-1.708844 -1.708845,-1.708844 z"
            id="path2"
            style="fill:url(#linearGradient867);fill-opacity:1"/>
</svg>
